<svg width="57" height="57" viewBox="0 0 57 57" fill="none" xmlns="http://www.w3.org/2000/svg">
<circle cx="28.5" cy="28.5" r="28.5" fill="url(#paint0_linear)"/>
<path d="M36.9267 33.7832L35.2111 30.843C34.4189 29.486 33.997 27.9317 33.997 26.3534V23.7789C33.997 20.5308 31.883 17.7832 28.9956 16.8977V15.0547C29.0003 13.9191 28.1003 13 26.9988 13C25.8972 13 24.9973 13.9191 24.9973 15.0547V16.8977C22.1098 17.7832 20.0005 20.5308 20.0005 23.7789V26.3534C20.0005 27.9365 19.5833 29.486 18.7912 30.843L17.0709 33.7784C16.9772 33.9371 16.9772 34.1344 17.0662 34.2981C17.1553 34.4568 17.3193 34.5579 17.5021 34.5579H36.5001C36.6782 34.5579 36.847 34.4568 36.936 34.2981C37.0251 34.1393 37.0204 33.9371 36.9267 33.7832Z" stroke="white" stroke-width="2" stroke-miterlimit="10"/>
<path d="M30.2715 34.8237C30.2715 36.6312 28.8063 38.0965 26.9988 38.0965C25.1913 38.0965 23.7261 36.6312 23.7261 34.8237" stroke="white" stroke-width="2"/>
<defs>
<linearGradient id="paint0_linear" x1="0" y1="28.5" x2="57" y2="28.5" gradientUnits="userSpaceOnUse">
<stop stop-color="#5E81F4"/>
<stop offset="1" stop-color="#4643D3" stop-opacity="0.5"/>
</linearGradient>
</defs>
</svg>
