{
  "_type": "export",
  "__export_format": 4,
  "__export_date": "2020-12-21T02:03:02.521Z",
  "__export_source": "insomnia.desktop.app:v2020.5.2",
  "resources": [
    {
      "_id": "req_8b107cb1f13e4ede9ef9c5523a3fa027",
      "parentId": "fld_71b561ea3ba4486cbae11e0cface2af0",
      "modified": 1608515040888,
      "created": 1608514974043,
      "url": "http://localhost:3335/employee",
      "name": "Create",
      "description": "",
      "method": "POST",
      "body": {
        "mimeType": "application/json",
        "text": "{\n\t\"name\": \"Luana Machado\",\n\t\"birthdate\": \"1987-09-28\",\n\t\"cpf\": \"201.601.560-82\",\n\t\"rg\": \"test\",\n\t\"phone\": \"53 9 0000-0000\",\n\t\"gender\": \"MASCULINO\",\n\t\"email\": \"Adalberto_Whites@yahoo.com\",\n\t\"password\": \"123456\",\n\t\"address\": \"rua jonas\",\n\t\"company\": \"Sorri Dev\",\n\t\"dentist\": \"Dona Josi\"\n}"
      },
      "parameters": [],
      "headers": [
        { "name": "Content-Type", "value": "application/json", "id": "pair_ade59a4f269a4f4bb2a839fc8d59be2a" }
      ],
      "authentication": {},
      "metaSortKey": -1608514974043,
      "isPrivate": false,
      "settingStoreCookies": true,
      "settingSendCookies": true,
      "settingDisableRenderRequestBody": false,
      "settingEncodeUrl": true,
      "settingRebuildPath": true,
      "settingFollowRedirects": "global",
      "_type": "request"
    },
    {
      "_id": "fld_71b561ea3ba4486cbae11e0cface2af0",
      "parentId": "fld_02a2b583e86445f4955b7516e488e0f4",
      "modified": 1608514967211,
      "created": 1608514967211,
      "name": "Employee",
      "description": "",
      "environment": {},
      "environmentPropertyOrder": null,
      "metaSortKey": -1608514967211,
      "_type": "request_group"
    },
    {
      "_id": "fld_02a2b583e86445f4955b7516e488e0f4",
      "parentId": "wrk_de12542106f04fe282229a9ac411d067",
      "modified": 1607911407782,
      "created": 1607911407782,
      "name": "Sorri Dev",
      "description": "",
      "environment": {},
      "environmentPropertyOrder": null,
      "metaSortKey": -1607911407782,
      "_type": "request_group"
    },
    {
      "_id": "wrk_de12542106f04fe282229a9ac411d067",
      "parentId": null,
      "modified": 1604924170691,
      "created": 1604924170691,
      "name": "Insomnia",
      "description": "",
      "scope": null,
      "_type": "workspace"
    },
    {
      "_id": "req_61204f3df4614717bd2c0bc0c9a97fc4",
      "parentId": "fld_71b561ea3ba4486cbae11e0cface2af0",
      "modified": 1608515055490,
      "created": 1608515049827,
      "url": "http://localhost:3335/employee",
      "name": "All",
      "description": "",
      "method": "GET",
      "body": {},
      "parameters": [],
      "headers": [],
      "authentication": {},
      "metaSortKey": -1608509826484,
      "isPrivate": false,
      "settingStoreCookies": true,
      "settingSendCookies": true,
      "settingDisableRenderRequestBody": false,
      "settingEncodeUrl": true,
      "settingRebuildPath": true,
      "settingFollowRedirects": "global",
      "_type": "request"
    },
    {
      "_id": "req_cae84efe981d4106a9753523fa305fa0",
      "parentId": "fld_71b561ea3ba4486cbae11e0cface2af0",
      "modified": 1608515070252,
      "created": 1608515060314,
      "url": "http://localhost:3335/employee/5fdffcb02f9bbd222dd14a12",
      "name": "Get",
      "description": "",
      "method": "GET",
      "body": {},
      "parameters": [],
      "headers": [],
      "authentication": {},
      "metaSortKey": -1608507252704.5,
      "isPrivate": false,
      "settingStoreCookies": true,
      "settingSendCookies": true,
      "settingDisableRenderRequestBody": false,
      "settingEncodeUrl": true,
      "settingRebuildPath": true,
      "settingFollowRedirects": "global",
      "_type": "request"
    },
    {
      "_id": "req_ca086afc7e9349f39e589a0b95bdf644",
      "parentId": "fld_71b561ea3ba4486cbae11e0cface2af0",
      "modified": 1608515079137,
      "created": 1608515076676,
      "url": "http://localhost:3335/employee/5fdffcb02f9bbd222dd14a12",
      "name": "Delete",
      "description": "",
      "method": "DELETE",
      "body": {},
      "parameters": [],
      "headers": [],
      "authentication": {},
      "metaSortKey": -1608505965814.75,
      "isPrivate": false,
      "settingStoreCookies": true,
      "settingSendCookies": true,
      "settingDisableRenderRequestBody": false,
      "settingEncodeUrl": true,
      "settingRebuildPath": true,
      "settingFollowRedirects": "global",
      "_type": "request"
    },
    {
      "_id": "req_ac71c7da769b40b39753971d4cf35aa6",
      "parentId": "fld_71b561ea3ba4486cbae11e0cface2af0",
      "modified": 1608515120490,
      "created": 1608515085888,
      "url": "http://localhost:3335/employee/5fdffd446be6121cb507cdc3",
      "name": "Update",
      "description": "",
      "method": "PUT",
      "body": { "mimeType": "application/json", "text": "{\n\t\"nome\":\"clovis souza\"\n}" },
      "parameters": [],
      "headers": [
        { "name": "Content-Type", "value": "application/json", "id": "pair_982110312ed74c5293e915a270365045" }
      ],
      "authentication": {},
      "metaSortKey": -1608505322369.875,
      "isPrivate": false,
      "settingStoreCookies": true,
      "settingSendCookies": true,
      "settingDisableRenderRequestBody": false,
      "settingEncodeUrl": true,
      "settingRebuildPath": true,
      "settingFollowRedirects": "global",
      "_type": "request"
    },
    {
      "_id": "req_9c493259464740bea4f4e30feac9421e",
      "parentId": "fld_cca201597a12401eae1bc2f5b3305b61",
      "modified": 1608514729163,
      "created": 1608514708685,
      "url": "http://localhost:3335/professional/5fdffc5866c9091518e6c20b",
      "name": "Update",
      "description": "",
      "method": "PUT",
      "body": {
        "mimeType": "application/json",
        "text": "{\n\t\"name\": \"jonas Jose\",\n\t\"birthdate\": \"1987-09-28\",\n\t\"cpf\": \"000-000-000-00\",\n\t\"rg:\": null,\n\t\"phone\": \"53 9 0000-0000\",\n\t\"gender\": \"masculino\",\n\t\"email\": \"jonas@gmail.com\",\n\t\"address\": \"rua jonas\",\n\t\"observation\": \"nao possui deficiencia\",\n\t\"password\": \"123456\",\n\t\"CRO\": \"123123\",\n\t\"specialist\": [\"teste\", \"teste\"]\n\t\n}"
      },
      "parameters": [],
      "headers": [
        { "name": "Content-Type", "value": "application/json", "id": "pair_eccc55541d2745239d04a6e7883be954" }
      ],
      "authentication": {},
      "metaSortKey": -1608514708685,
      "isPrivate": false,
      "settingStoreCookies": true,
      "settingSendCookies": true,
      "settingDisableRenderRequestBody": false,
      "settingEncodeUrl": true,
      "settingRebuildPath": true,
      "settingFollowRedirects": "global",
      "_type": "request"
    },
    {
      "_id": "fld_cca201597a12401eae1bc2f5b3305b61",
      "parentId": "fld_02a2b583e86445f4955b7516e488e0f4",
      "modified": 1608514444365,
      "created": 1608514444365,
      "name": "Professional",
      "description": "",
      "environment": {},
      "environmentPropertyOrder": null,
      "metaSortKey": -1608514444365,
      "_type": "request_group"
    },
    {
      "_id": "req_fcd125b1083141858129ffaf5962300a",
      "parentId": "fld_cca201597a12401eae1bc2f5b3305b61",
      "modified": 1608514686007,
      "created": 1608514664326,
      "url": "http://localhost:3335/professional/5fdffc5866c9091518e6c20b",
      "name": "Professional",
      "description": "",
      "method": "GET",
      "body": {},
      "parameters": [],
      "headers": [],
      "authentication": {},
      "metaSortKey": -1608514664326,
      "isPrivate": false,
      "settingStoreCookies": true,
      "settingSendCookies": true,
      "settingDisableRenderRequestBody": false,
      "settingEncodeUrl": true,
      "settingRebuildPath": true,
      "settingFollowRedirects": "global",
      "_type": "request"
    },
    {
      "_id": "req_13bd7fbaf02e4708bd7f1862ad13a22b",
      "parentId": "fld_cca201597a12401eae1bc2f5b3305b61",
      "modified": 1608514640986,
      "created": 1608514631074,
      "url": "http://localhost:3335/professional/5fdffbfa66c9091518e6c209",
      "name": "Delete",
      "description": "",
      "method": "DELETE",
      "body": {},
      "parameters": [],
      "headers": [],
      "authentication": {},
      "metaSortKey": -1608514631074,
      "isPrivate": false,
      "settingStoreCookies": true,
      "settingSendCookies": true,
      "settingDisableRenderRequestBody": false,
      "settingEncodeUrl": true,
      "settingRebuildPath": true,
      "settingFollowRedirects": "global",
      "_type": "request"
    },
    {
      "_id": "req_b126df8900f64f2aa663dfc0163ffc08",
      "parentId": "fld_cca201597a12401eae1bc2f5b3305b61",
      "modified": 1608514616532,
      "created": 1608514612394,
      "url": "http://localhost:3335/professional",
      "name": "All",
      "description": "",
      "method": "GET",
      "body": {},
      "parameters": [],
      "headers": [],
      "authentication": {},
      "metaSortKey": -1608514612394,
      "isPrivate": false,
      "settingStoreCookies": true,
      "settingSendCookies": true,
      "settingDisableRenderRequestBody": false,
      "settingEncodeUrl": true,
      "settingRebuildPath": true,
      "settingFollowRedirects": "global",
      "_type": "request"
    },
    {
      "_id": "req_7e86771fd0024d3b899beac6778323fb",
      "parentId": "fld_cca201597a12401eae1bc2f5b3305b61",
      "modified": 1608514581719,
      "created": 1608514458831,
      "url": "http://localhost:3335/professional",
      "name": "Create",
      "description": "",
      "method": "POST",
      "body": {
        "mimeType": "application/json",
        "text": "{\n\t\"name\": \"jonas Jose\",\n\t\"birthdate\": \"1987-09-28\",\n\t\"cpf\": \"000-000-000-00\",\n\t\"rg:\": null,\n\t\"phone\": \"53 9 0000-0000\",\n\t\"gender\": \"masculino\",\n\t\"email\": \"jonas@gmail.com\",\n\t\"address\": \"rua jonas\",\n\t\"observation\": \"nao possui deficiencia\",\n\t\"password\": \"123456\",\n\t\"CRO\": \"123123\",\n\t\"specialist\": [\"teste\", \"teste\"]\n\t\n}"
      },
      "parameters": [],
      "headers": [
        { "name": "Content-Type", "value": "application/json", "id": "pair_5581dbb7f4f6401987b2eed5ec496d1d" }
      ],
      "authentication": {},
      "metaSortKey": -1608514458831,
      "isPrivate": false,
      "settingStoreCookies": true,
      "settingSendCookies": true,
      "settingDisableRenderRequestBody": false,
      "settingEncodeUrl": true,
      "settingRebuildPath": true,
      "settingFollowRedirects": "global",
      "_type": "request"
    },
    {
      "_id": "req_6d713d1505634712a9c05961e3767fe0",
      "parentId": "fld_f5734909b0134c56998f647cd707385e",
      "modified": 1608504717968,
      "created": 1608504678925,
      "url": "http://localhost:3335/service",
      "name": "Create",
      "description": "",
      "method": "POST",
      "body": {
        "mimeType": "application/json",
        "text": "{\n\t\"name\": \"Jonas da Silva\",\n\t\"phone\": \"(53) 3232-2912\",\n\t\"supply\": \"Eletricista\"\n}"
      },
      "parameters": [],
      "headers": [
        { "name": "Content-Type", "value": "application/json", "id": "pair_35186183ab7148ca949843c33ea73cb8" }
      ],
      "authentication": {},
      "metaSortKey": -1608504678925,
      "isPrivate": false,
      "settingStoreCookies": true,
      "settingSendCookies": true,
      "settingDisableRenderRequestBody": false,
      "settingEncodeUrl": true,
      "settingRebuildPath": true,
      "settingFollowRedirects": "global",
      "_type": "request"
    },
    {
      "_id": "fld_f5734909b0134c56998f647cd707385e",
      "parentId": "fld_02a2b583e86445f4955b7516e488e0f4",
      "modified": 1608504672709,
      "created": 1608504672709,
      "name": "Service",
      "description": "",
      "environment": {},
      "environmentPropertyOrder": null,
      "metaSortKey": -1608504672709,
      "_type": "request_group"
    },
    {
      "_id": "req_8076a4907a3e4f8cbfb02d0117477f2d",
      "parentId": "fld_f5734909b0134c56998f647cd707385e",
      "modified": 1608504731715,
      "created": 1608504724582,
      "url": "http://localhost:3335/service",
      "name": "All",
      "description": "",
      "method": "GET",
      "body": {},
      "parameters": [],
      "headers": [],
      "authentication": {},
      "metaSortKey": -1608401490522,
      "isPrivate": false,
      "settingStoreCookies": true,
      "settingSendCookies": true,
      "settingDisableRenderRequestBody": false,
      "settingEncodeUrl": true,
      "settingRebuildPath": true,
      "settingFollowRedirects": "global",
      "_type": "request"
    },
    {
      "_id": "req_5c15f077a34d41eb99ad9a4b7e17f4ad",
      "parentId": "fld_f5734909b0134c56998f647cd707385e",
      "modified": 1608504757145,
      "created": 1608504738760,
      "url": "http://localhost:3335/service/5fdfd4656e82f20a756db379",
      "name": "Get",
      "description": "",
      "method": "GET",
      "body": {},
      "parameters": [],
      "headers": [],
      "authentication": {},
      "metaSortKey": -1608349896320.5,
      "isPrivate": false,
      "settingStoreCookies": true,
      "settingSendCookies": true,
      "settingDisableRenderRequestBody": false,
      "settingEncodeUrl": true,
      "settingRebuildPath": true,
      "settingFollowRedirects": "global",
      "_type": "request"
    },
    {
      "_id": "req_83ff906d3be345b880b87813cd5190a3",
      "parentId": "fld_f5734909b0134c56998f647cd707385e",
      "modified": 1608504772713,
      "created": 1608504764471,
      "url": "http://localhost:3335/service/5fdfd4656e82f20a756db379",
      "name": "Delete",
      "description": "",
      "method": "DELETE",
      "body": {},
      "parameters": [],
      "headers": [],
      "authentication": {},
      "metaSortKey": -1608324099219.75,
      "isPrivate": false,
      "settingStoreCookies": true,
      "settingSendCookies": true,
      "settingDisableRenderRequestBody": false,
      "settingEncodeUrl": true,
      "settingRebuildPath": true,
      "settingFollowRedirects": "global",
      "_type": "request"
    },
    {
      "_id": "req_7368a6de7a354ebdaf3789f5f62c5d0d",
      "parentId": "fld_f5734909b0134c56998f647cd707385e",
      "modified": 1608504816943,
      "created": 1608504780349,
      "url": "http://localhost:3335/service/5fdfd4656e82f20a756db379",
      "name": "Update",
      "description": "",
      "method": "PUT",
      "body": {
        "mimeType": "application/json",
        "text": "{\n\t\"name\": \"Clovis da Silva\",\n\t\"phone\": \"(53) 3232-2913\",\n\t\"supply\": \"Doces e artigos de festa\"\n}"
      },
      "parameters": [],
      "headers": [
        { "name": "Content-Type", "value": "application/json", "id": "pair_197222c166f94f70ac18513ae02e9585" }
      ],
      "authentication": {},
      "metaSortKey": -1608311200669.375,
      "isPrivate": false,
      "settingStoreCookies": true,
      "settingSendCookies": true,
      "settingDisableRenderRequestBody": false,
      "settingEncodeUrl": true,
      "settingRebuildPath": true,
      "settingFollowRedirects": "global",
      "_type": "request"
    },
    {
      "_id": "req_70fd93a6042140fa8019c3f99c98f829",
      "parentId": "fld_b73c8c74a1214864acb9aac90bb99f9a",
      "modified": 1608476883829,
      "created": 1608297725397,
      "url": "http://localhost:3335/auth",
      "name": "Auth",
      "description": "",
      "method": "POST",
      "body": {
        "mimeType": "application/json",
        "text": "{\n    \"password\": \"123456\",\n    \"email\": \"jonas@gmail.com\"\n}"
      },
      "parameters": [],
      "headers": [
        { "name": "Content-Type", "value": "application/json", "id": "pair_6dfb99fbf5cd448bbfbc20c32d1e0cbf" }
      ],
      "authentication": {},
      "metaSortKey": -1608297725397,
      "isPrivate": false,
      "settingStoreCookies": true,
      "settingSendCookies": true,
      "settingDisableRenderRequestBody": false,
      "settingEncodeUrl": true,
      "settingRebuildPath": true,
      "settingFollowRedirects": "global",
      "_type": "request"
    },
    {
      "_id": "fld_b73c8c74a1214864acb9aac90bb99f9a",
      "parentId": "fld_02a2b583e86445f4955b7516e488e0f4",
      "modified": 1608297714827,
      "created": 1608297714827,
      "name": "Auth",
      "description": "",
      "environment": {},
      "environmentPropertyOrder": null,
      "metaSortKey": -1608297714827,
      "_type": "request_group"
    },
    {
      "_id": "req_a1228ca59d384602b11b6259598caea0",
      "parentId": "fld_5a9a1239fe1e4271b722274b9cac3298",
      "modified": 1608483228507,
      "created": 1608296842229,
      "url": "http://localhost:3335/schedule/5fdf818eda1eb1ee141d7bde",
      "name": "Delete",
      "description": "",
      "method": "DELETE",
      "body": {},
      "parameters": [],
      "headers": [],
      "authentication": {},
      "metaSortKey": -1608296842229,
      "isPrivate": false,
      "settingStoreCookies": true,
      "settingSendCookies": true,
      "settingDisableRenderRequestBody": false,
      "settingEncodeUrl": true,
      "settingRebuildPath": true,
      "settingFollowRedirects": "global",
      "_type": "request"
    },
    {
      "_id": "fld_5a9a1239fe1e4271b722274b9cac3298",
      "parentId": "fld_02a2b583e86445f4955b7516e488e0f4",
      "modified": 1608296697354,
      "created": 1608296697354,
      "name": "Schedule",
      "description": "",
      "environment": {},
      "environmentPropertyOrder": null,
      "metaSortKey": -1608296697354,
      "_type": "request_group"
    },
    {
      "_id": "req_71ac2ede3b4f4d45a78fabb1d4714b90",
      "parentId": "fld_5a9a1239fe1e4271b722274b9cac3298",
      "modified": 1608483225680,
      "created": 1608296833676,
      "url": "http://localhost:3335/schedule/5fdf818eda1eb1ee141d7bde",
      "name": "Update",
      "description": "",
      "method": "PUT",
      "body": {
        "mimeType": "application/json",
        "text": "{\n    \"date\": \"2020-12-18\",\n    \"startTime\": \"2020-12-18T10:23:36.510Z\",\n    \"endTime\": \"2020-12-18T10:53:36.510Z\",\n    \"client_id\": \"1\",\n    \"dentist_id\": \"3\",\n    \"health_insurance_name\": \"UniOdonto\",\n    \"observation\": null,\n    \"value\": \"150.00\",\n    \"status\": null,\n    \"hasReturn\": false\n}"
      },
      "parameters": [],
      "headers": [
        { "name": "Content-Type", "value": "application/json", "id": "pair_3cee47e9e5844880aa126adf0a3bb40a" }
      ],
      "authentication": {},
      "metaSortKey": -1608296833677,
      "isPrivate": false,
      "settingStoreCookies": true,
      "settingSendCookies": true,
      "settingDisableRenderRequestBody": false,
      "settingEncodeUrl": true,
      "settingRebuildPath": true,
      "settingFollowRedirects": "global",
      "_type": "request"
    },
    {
      "_id": "req_f9d90e3662184705a4c3ecf072da82f1",
      "parentId": "fld_5a9a1239fe1e4271b722274b9cac3298",
      "modified": 1608477066316,
      "created": 1608296820407,
      "url": "http://localhost:3335/schedule",
      "name": "All",
      "description": "",
      "method": "GET",
      "body": {},
      "parameters": [],
      "headers": [],
      "authentication": {},
      "metaSortKey": -1608296820407,
      "isPrivate": false,
      "settingStoreCookies": true,
      "settingSendCookies": true,
      "settingDisableRenderRequestBody": false,
      "settingEncodeUrl": true,
      "settingRebuildPath": true,
      "settingFollowRedirects": "global",
      "_type": "request"
    },
    {
      "_id": "req_a91cfbff867e48d4b37ae63d138e8918",
      "parentId": "fld_5a9a1239fe1e4271b722274b9cac3298",
      "modified": 1608483220328,
      "created": 1608296813398,
      "url": "http://localhost:3335/schedule/5fdf818eda1eb1ee141d7bde",
      "name": "Get",
      "description": "",
      "method": "GET",
      "body": {},
      "parameters": [],
      "headers": [],
      "authentication": {},
      "metaSortKey": -1608296813398,
      "isPrivate": false,
      "settingStoreCookies": true,
      "settingSendCookies": true,
      "settingDisableRenderRequestBody": false,
      "settingEncodeUrl": true,
      "settingRebuildPath": true,
      "settingFollowRedirects": "global",
      "_type": "request"
    },
    {
      "_id": "req_d3c8788f08804e7cb3e32faca4047104",
      "parentId": "fld_5a9a1239fe1e4271b722274b9cac3298",
      "modified": 1608297595162,
      "created": 1608296802229,
      "url": "http://localhost:3335/schedule",
      "name": "Create",
      "description": "",
      "method": "POST",
      "body": {
        "mimeType": "application/json",
        "text": "{\n    \"date\": \"2020-12-18\",\n    \"startTime\": \"2020-12-18T10:23:36.510Z\",\n    \"endTime\": \"2020-12-18T10:53:36.510Z\",\n    \"client_id\": \"1\",\n    \"dentist_id\": \"2\",\n    \"health_insurance_name\": \"UniOdonto\",\n    \"observation\": null,\n    \"value\": \"150.00\",\n    \"status\": null,\n    \"hasReturn\": false\n}"
      },
      "parameters": [],
      "headers": [
        { "name": "Content-Type", "value": "application/json", "id": "pair_ab43b98024234caeadac694b16e47820" }
      ],
      "authentication": {},
      "metaSortKey": -1608296802229,
      "isPrivate": false,
      "settingStoreCookies": true,
      "settingSendCookies": true,
      "settingDisableRenderRequestBody": false,
      "settingEncodeUrl": true,
      "settingRebuildPath": true,
      "settingFollowRedirects": "global",
      "_type": "request"
    },
    {
      "_id": "req_e5f6be8964f34fc08f97036314e74f26",
      "parentId": "fld_c6a9a71492cc48ffb11924aaaa78ab43",
      "modified": 1608295673505,
      "created": 1608295667912,
      "url": "http://localhost:3335/balance",
      "name": "All",
      "description": "",
      "method": "GET",
      "body": {},
      "parameters": [],
      "headers": [],
      "authentication": {},
      "metaSortKey": -1608295667912,
      "isPrivate": false,
      "settingStoreCookies": true,
      "settingSendCookies": true,
      "settingDisableRenderRequestBody": false,
      "settingEncodeUrl": true,
      "settingRebuildPath": true,
      "settingFollowRedirects": "global",
      "_type": "request"
    },
    {
      "_id": "fld_c6a9a71492cc48ffb11924aaaa78ab43",
      "parentId": "fld_02a2b583e86445f4955b7516e488e0f4",
      "modified": 1608294342653,
      "created": 1608294342653,
      "name": "Balance",
      "description": "",
      "environment": {},
      "environmentPropertyOrder": null,
      "metaSortKey": -1608294342653,
      "_type": "request_group"
    },
    {
      "_id": "req_516ebd0333aa454882ac50b3aade8ab9",
      "parentId": "fld_c6a9a71492cc48ffb11924aaaa78ab43",
      "modified": 1608483208463,
      "created": 1608294407395,
      "url": "http://localhost:3335/balance/5fdf817bda1eb1ee141d7bdd",
      "name": "Delete",
      "description": "",
      "method": "DELETE",
      "body": {},
      "parameters": [],
      "headers": [],
      "authentication": {},
      "metaSortKey": -1608294407395,
      "isPrivate": false,
      "settingStoreCookies": true,
      "settingSendCookies": true,
      "settingDisableRenderRequestBody": false,
      "settingEncodeUrl": true,
      "settingRebuildPath": true,
      "settingFollowRedirects": "global",
      "_type": "request"
    },
    {
      "_id": "req_fdc80dc6a7304e01b2536375fc45d852",
      "parentId": "fld_c6a9a71492cc48ffb11924aaaa78ab43",
      "modified": 1608483203656,
      "created": 1608294389965,
      "url": "http://localhost:3335/balance/5fdf817bda1eb1ee141d7bdd",
      "name": "Balance",
      "description": "",
      "method": "GET",
      "body": {},
      "parameters": [],
      "headers": [],
      "authentication": {},
      "metaSortKey": -1608294389966,
      "isPrivate": false,
      "settingStoreCookies": true,
      "settingSendCookies": true,
      "settingDisableRenderRequestBody": false,
      "settingEncodeUrl": true,
      "settingRebuildPath": true,
      "settingFollowRedirects": "global",
      "_type": "request"
    },
    {
      "_id": "req_f5aef14064c94cd2bc3e3a2737eb363c",
      "parentId": "fld_c6a9a71492cc48ffb11924aaaa78ab43",
      "modified": 1608483200833,
      "created": 1608294369141,
      "url": "http://localhost:3335/balance/5fdf817bda1eb1ee141d7bdd",
      "name": "Update",
      "description": "",
      "method": "PUT",
      "body": { "mimeType": "application/json", "text": "" },
      "parameters": [],
      "headers": [
        { "name": "Content-Type", "value": "application/json", "id": "pair_7532183f03e343ccbde9e9164f2a3707" }
      ],
      "authentication": {},
      "metaSortKey": -1608294369141,
      "isPrivate": false,
      "settingStoreCookies": true,
      "settingSendCookies": true,
      "settingDisableRenderRequestBody": false,
      "settingEncodeUrl": true,
      "settingRebuildPath": true,
      "settingFollowRedirects": "global",
      "_type": "request"
    },
    {
      "_id": "req_38be97658bde42e0a425d1dcf13a34f5",
      "parentId": "fld_c6a9a71492cc48ffb11924aaaa78ab43",
      "modified": 1608295642398,
      "created": 1608294350786,
      "url": "http://localhost:3335/balance",
      "name": "Create",
      "description": "",
      "method": "POST",
      "body": {
        "mimeType": "application/json",
        "text": "{\n    \"cash_accounting\": \"1.2500\",\n    \"spending\": \"1.500.00\",\n    \"number_of_appointments\": 4\n}"
      },
      "parameters": [],
      "headers": [
        { "name": "Content-Type", "value": "application/json", "id": "pair_d95ca5e10a0b4f0b97f739a3f9c165ab" }
      ],
      "authentication": {},
      "metaSortKey": -1608294350786,
      "isPrivate": false,
      "settingStoreCookies": true,
      "settingSendCookies": true,
      "settingDisableRenderRequestBody": false,
      "settingEncodeUrl": true,
      "settingRebuildPath": true,
      "settingFollowRedirects": "global",
      "_type": "request"
    },
    {
      "_id": "req_359bb6e2cb284fc48363eb4d162fb632",
      "parentId": "fld_c5dc2ae70cb4491bb090cac83c0c77dc",
      "modified": 1608298307448,
      "created": 1608298302119,
      "url": "http://localhost:3335/user/",
      "name": "All",
      "description": "",
      "method": "GET",
      "body": {},
      "parameters": [],
      "headers": [],
      "authentication": {},
      "metaSortKey": -1608298302119,
      "isPrivate": false,
      "settingStoreCookies": true,
      "settingSendCookies": true,
      "settingDisableRenderRequestBody": false,
      "settingEncodeUrl": true,
      "settingRebuildPath": true,
      "settingFollowRedirects": "global",
      "_type": "request"
    },
    {
      "_id": "fld_c5dc2ae70cb4491bb090cac83c0c77dc",
      "parentId": "fld_02a2b583e86445f4955b7516e488e0f4",
      "modified": 1608294318173,
      "created": 1608294318173,
      "name": "User",
      "description": "",
      "environment": {},
      "environmentPropertyOrder": null,
      "metaSortKey": -1608294318173,
      "_type": "request_group"
    },
    {
      "_id": "req_5d21ee5c43ba4e1290da82bd12e938aa",
      "parentId": "fld_c5dc2ae70cb4491bb090cac83c0c77dc",
      "modified": 1608476649402,
      "created": 1607984370183,
      "url": "http://localhost:3335/user/5fdf67b34d9654d43c13ec2f",
      "name": "Update",
      "description": "",
      "method": "PUT",
      "body": {
        "mimeType": "application/json",
        "text": "{\n\t\"name\": \"Teste r\",\n\t\"cpf\": \"113344e2\",\n\t\"birthdate\": \"1987-09-28\",\n\t\"gender\": \"masculino\"\n}"
      },
      "parameters": [],
      "headers": [
        { "name": "Content-Type", "value": "application/json", "id": "pair_676eb33e8c1144acb2f58f171c61f4c3" }
      ],
      "authentication": {},
      "metaSortKey": -1607983372414,
      "isPrivate": false,
      "settingStoreCookies": true,
      "settingSendCookies": true,
      "settingDisableRenderRequestBody": false,
      "settingEncodeUrl": true,
      "settingRebuildPath": true,
      "settingFollowRedirects": "global",
      "_type": "request"
    },
    {
      "_id": "req_7860c8a1e8e84f239e86b2efb2e7f252",
      "parentId": "fld_c5dc2ae70cb4491bb090cac83c0c77dc",
      "modified": 1608297902321,
      "created": 1607911411896,
      "url": "http://localhost:3335/user",
      "name": "Create",
      "description": "",
      "method": "POST",
      "body": {
        "mimeType": "application/json",
        "text": "{\n\t\"name\": \"jonas Jose\",\n\t\"birthdate\": \"1987-09-28\",\n\t\"cpf\": \"000-000-000-00\",\n\t\"rg:\": null,\n\t\"phone\": \"53 9 0000-0000\",\n\t\"gender\": \"masculino\",\n\t\"email\": \"jonas@gmail.com\",\n\t\"address\": \"rua jonas\",\n\t\"observation\": \"nao possui deficiencia\",\n\t\"password\": \"123456\"\n}"
      },
      "parameters": [],
      "headers": [
        { "name": "Content-Type", "value": "application/json", "id": "pair_308abdaa209b4f12b653d42e1c7a75d8" }
      ],
      "authentication": {},
      "metaSortKey": -1607983372389,
      "isPrivate": false,
      "settingStoreCookies": true,
      "settingSendCookies": true,
      "settingDisableRenderRequestBody": false,
      "settingEncodeUrl": true,
      "settingRebuildPath": true,
      "settingFollowRedirects": "global",
      "_type": "request"
    },
    {
      "_id": "req_509cdac6083d443ab630fc80fa473e6f",
      "parentId": "fld_c5dc2ae70cb4491bb090cac83c0c77dc",
      "modified": 1608476751699,
      "created": 1607708648501,
      "url": "http://localhost:3335/user/5fdf683c4d9654d43c13ec32",
      "name": "User",
      "description": "",
      "method": "GET",
      "body": {},
      "parameters": [],
      "headers": [
        {
          "name": "Authorization",
          "value": "Bearer eyJhbGciOiJIUzI1NiIsInR5cCI6IkpXVCJ9.eyJfaWQiOiI1ZmRjYjNhODIxNGU5ZTFlYzQ5OGYzNDEiLCJvd25lciI6IlVTRVIiLCJpYXQiOjE2MDgyOTk2MzIsImV4cCI6MTYwODkwNDQzMn0.lDZysF1U3bn5zeIhFOl_58UBlGPTvhiOwGXvU0qWBZU",
          "description": "",
          "id": "pair_0bafc7f70a58428b9e9e99ab38854a44",
          "disabled": true
        }
      ],
      "authentication": {},
      "metaSortKey": -1607983372364,
      "isPrivate": false,
      "settingStoreCookies": true,
      "settingSendCookies": true,
      "settingDisableRenderRequestBody": false,
      "settingEncodeUrl": true,
      "settingRebuildPath": true,
      "settingFollowRedirects": "global",
      "_type": "request"
    },
    {
      "_id": "req_1380878bc7004206a74849982ca4cebc",
      "parentId": "fld_c5dc2ae70cb4491bb090cac83c0c77dc",
      "modified": 1608483189054,
      "created": 1607983372314,
      "url": "http://localhost:3335/user/5fdf814442ac69fa7c3a44e9",
      "name": "Delete",
      "description": "",
      "method": "DELETE",
      "body": {},
      "parameters": [],
      "headers": [],
      "authentication": {},
      "metaSortKey": -1607983372314,
      "isPrivate": false,
      "settingStoreCookies": true,
      "settingSendCookies": true,
      "settingDisableRenderRequestBody": false,
      "settingEncodeUrl": true,
      "settingRebuildPath": true,
      "settingFollowRedirects": "global",
      "_type": "request"
    },
    {
      "_id": "req_438712fa1d4543e7aac5263cf97727ae",
      "parentId": "fld_f53618fa9bc24637b476033c4e43d0ea",
      "modified": 1608504489299,
      "created": 1608504366009,
      "url": "http://localhost:3335/stock/5fdfd48f750e98072800f37b",
      "name": "delete",
      "description": "",
      "method": "DELETE",
      "body": {},
      "parameters": [],
      "headers": [],
      "authentication": {},
      "metaSortKey": -1608504366009,
      "isPrivate": false,
      "settingStoreCookies": true,
      "settingSendCookies": true,
      "settingDisableRenderRequestBody": false,
      "settingEncodeUrl": true,
      "settingRebuildPath": true,
      "settingFollowRedirects": "global",
      "_type": "request"
    },
    {
      "_id": "fld_f53618fa9bc24637b476033c4e43d0ea",
      "parentId": "fld_02a2b583e86445f4955b7516e488e0f4",
      "modified": 1608504292852,
      "created": 1608504286142,
      "name": "Stock",
      "description": "",
      "environment": {},
      "environmentPropertyOrder": null,
      "metaSortKey": -1608102913103,
      "_type": "request_group"
    },
    {
      "_id": "req_04edbcac69d34e6da6dcd987d9df228b",
      "parentId": "fld_f53618fa9bc24637b476033c4e43d0ea",
      "modified": 1608504483563,
      "created": 1608504345203,
      "url": "http://localhost:3335/stock/5fdfd48f750e98072800f37b",
      "name": "update",
      "description": "",
      "method": "PUT",
      "body": {
        "mimeType": "application/json",
        "text": "{\n    \"product\": \"pasta de dente\",\n    \"price\": \"R$ 9.930\",\n    \"quantity\": 2,\n    \"provider\": \"dental show\"\n}"
      },
      "parameters": [],
      "headers": [
        { "name": "Content-Type", "value": "application/json", "id": "pair_441b087c0f8f482e9ea92fd253683305" }
      ],
      "authentication": {},
      "metaSortKey": -1608504345203,
      "isPrivate": false,
      "settingStoreCookies": true,
      "settingSendCookies": true,
      "settingDisableRenderRequestBody": false,
      "settingEncodeUrl": true,
      "settingRebuildPath": true,
      "settingFollowRedirects": "global",
      "_type": "request"
    },
    {
      "_id": "req_579cc60cd11f48478b7a98a610fe1125",
      "parentId": "fld_f53618fa9bc24637b476033c4e43d0ea",
      "modified": 1608504461231,
      "created": 1608504328673,
      "url": "http://localhost:3335/stock",
      "name": "create",
      "description": "",
      "method": "POST",
      "body": {
        "mimeType": "application/json",
        "text": "{\n    \"product\": \"pasta de dente\",\n    \"price\": \"R$ 9.90\",\n    \"quantity\": 2,\n    \"provider\": \"dental show\"\n}"
      },
      "parameters": [],
      "headers": [
        { "name": "Content-Type", "value": "application/json", "id": "pair_772b73e4dcbc46fd94ffd708214d71ef" }
      ],
      "authentication": {},
      "metaSortKey": -1608504328673,
      "isPrivate": false,
      "settingStoreCookies": true,
      "settingSendCookies": true,
      "settingDisableRenderRequestBody": false,
      "settingEncodeUrl": true,
      "settingRebuildPath": true,
      "settingFollowRedirects": "global",
      "_type": "request"
    },
    {
      "_id": "req_5e9f23469b394849ac19421949f2ec45",
      "parentId": "fld_f53618fa9bc24637b476033c4e43d0ea",
      "modified": 1608504469171,
      "created": 1608504316134,
      "url": "http://localhost:3335/stock/5fdfd48f750e98072800f37b",
      "name": "find",
      "description": "",
      "method": "GET",
      "body": {},
      "parameters": [],
      "headers": [],
      "authentication": {},
      "metaSortKey": -1608504316134,
      "isPrivate": false,
      "settingStoreCookies": true,
      "settingSendCookies": true,
      "settingDisableRenderRequestBody": false,
      "settingEncodeUrl": true,
      "settingRebuildPath": true,
      "settingFollowRedirects": "global",
      "_type": "request"
    },
    {
      "_id": "req_de0a522944e545db88a5b3ee1d1274df",
      "parentId": "fld_f53618fa9bc24637b476033c4e43d0ea",
      "modified": 1608504410948,
      "created": 1608504304757,
      "url": "http://localhost:3335/stock",
      "name": "All",
      "description": "",
      "method": "GET",
      "body": {},
      "parameters": [],
      "headers": [],
      "authentication": {},
      "metaSortKey": -1608504304757,
      "isPrivate": false,
      "settingStoreCookies": true,
      "settingSendCookies": true,
      "settingDisableRenderRequestBody": false,
      "settingEncodeUrl": true,
      "settingRebuildPath": true,
      "settingFollowRedirects": "global",
      "_type": "request"
    },
    {
      "_id": "req_75003597b5d1464eb38bfceaa94e450c",
      "parentId": "fld_02a2b583e86445f4955b7516e488e0f4",
      "modified": 1608297329795,
      "created": 1607911508033,
      "url": "http://localhost:3335/health",
      "name": "health",
      "description": "",
      "method": "GET",
      "body": {},
      "parameters": [],
      "headers": [],
      "authentication": {},
      "metaSortKey": -1607911508033,
      "isPrivate": false,
      "settingStoreCookies": true,
      "settingSendCookies": true,
      "settingDisableRenderRequestBody": false,
      "settingEncodeUrl": true,
      "settingRebuildPath": true,
      "settingFollowRedirects": "global",
      "_type": "request"
    },
    {
      "_id": "env_bcb30348025546ecc825b591e86c56d8fd1e94d9",
      "parentId": "wrk_de12542106f04fe282229a9ac411d067",
      "modified": 1604924170806,
      "created": 1604924170806,
      "name": "Base Environment",
      "data": {},
      "dataPropertyOrder": null,
      "color": null,
      "isPrivate": false,
      "metaSortKey": 1604924170807,
      "_type": "environment"
    },
    {
      "_id": "jar_bcb30348025546ecc825b591e86c56d8fd1e94d9",
      "parentId": "wrk_de12542106f04fe282229a9ac411d067",
      "modified": 1606153568195,
      "created": 1604924170823,
      "name": "Default Jar",
      "cookies": [
        {
          "key": "route",
          "value": "1606153468.579.38.164686",
          "domain": "am.infra.dev.gms.corp",
          "path": "/",
          "secure": true,
          "httpOnly": true,
          "hostOnly": true,
          "creation": "2020-11-23T17:46:08.186Z",
          "lastAccessed": "2020-11-23T17:46:08.186Z",
          "id": "1697219515074364"
        }
      ],
      "_type": "cookie_jar"
    },
    {
      "_id": "spc_de98dab6185c4e2a8c0f48c2987c492f",
      "parentId": "wrk_de12542106f04fe282229a9ac411d067",
      "modified": 1604924170692,
      "created": 1604924170692,
      "fileName": "Insomnia",
      "contents": "",
      "contentType": "yaml",
      "_type": "api_spec"
    }
  ]
}
