{
	"id": "8b8cb972-404a-4475-9b21-9e9cb6919d89",
	"name": "Sorridev-HML",
	"values": [
		{
			"key": "baseUrl",
			"value": "https://sorridev.ue.r.appspot.com",
			"enabled": true
		},
		{
			"key": "utils",
			"value": "(class Utils {\n    static makeString(length = 18) {\n        let result = '';\n        let characters = 'ABCDEFGHIJKLMNOPQRSTUVWXYZabcdefghijklmnopqrstuvwxyz0123456789';\n        for (let i = 0; i < length; i++) result += characters.charAt(~~(Math.random() * characters.length));\n        return result;\n    }\n    static get timeout() {\n        return 8000;\n    }\n    static promise(opt) {\n        return new Promise((resolve, reject) => {\n            pm.sendRequest(opt, (err, response) => {\n              if (err) return reject(err);\n              resolve(response);\n            });\n        });\n    }\n    static makeNumber(n = 20) {\n        return ~~(Math.random() * n);\n    }\n    static compareMsgs(arrMsgsExpected, arrReceived, ...args) {\n        const prop = args.find(el => typeof el === 'string') || 'message';\n        const bool = args.find(el => typeof el === 'boolean');\n        const compareEqual = typeof bool !== 'undefined' ? bool : true;\n        if (arrMsgsExpected.length !== arrReceived.length) return false;\n        return arrReceived.every(obj => {\n            const valReceived = prop === 'message' ? obj[prop].replace(/\\\"/g, '') : obj[prop];\n            if (typeof obj !== 'object') return arrMsgsExpected.some(valExpected => obj === valExpected);\n            if (!compareEqual) return arrMsgsExpected.some(valExpected => valReceived.includes(valExpected));\n            return arrMsgsExpected.some(valExpected => valReceived === valExpected);\n        });\n    }\n    static _capitalize(s) {\n        s = s.trim();\n        return s && s[0].toUpperCase() + s.slice(1);\n    }\n    static testsHttpResponseJsonSchema(obj = {\n        statusMessage: 'Created',\n        statusCode: 201\n    }) {\n        if (!(obj instanceof Object && obj.constructor === Object)) throw new Error('Invalid params');\n        else if (!Object.keys(obj).every(k => ['statusMessage', 'statusCode', 'schema', 'scope', 'errorMessage', 'errorCode'].includes(k))) throw new Error(\"The properties must be: 'statusMessage', 'statusCode', 'schema', 'scope', 'errorMessage', 'errorCode'\");\n        const defaultValues = Object.freeze({\n            scope: pm.response,\n            statusMessage: 'Created',\n            statusCode: 201,\n        });\n\t\t\n\t\tconst defaultValuesHttp4xx = Object.freeze({\n\t\t\tscope: pm.response,\n            errorCode: 400,\n\t\t\terrorMessage: 'Bad Request'\n        });\n        const result = obj.statusCode && obj.statusCode >= 400 && obj.statusCode < 500 ? Object.assign({}, defaultValuesHttp4xx, obj) : Object.assign({}, defaultValues, obj);\n        pm.test(`Status code is ${result.statusCode}`, () => {\n            pm.expect(result.scope.code).to.be.equal(result.statusCode);\n        });\n        pm.test(`Status message is ${this._capitalize(result.statusMessage.trim())}`, () => {\n            pm.expect(result.scope.status.toLowerCase()).to.be.equal(`${result.statusMessage.trim().toLowerCase()}`);\n        });\n        if (result.schema) {\n            pm.test('Json Schema is valid', () => {\n                const Ajv = require('ajv');\n                const ajv = new Ajv();\n                pm.expect(ajv.validate(JSON.parse(pm.environment.get(`${result.schema.trim()}`)), result.scope.json())).to.be.true;\n            });\n        }\n        if (result.statusCode >= 400 && result.statusCode < 500 && result.errorMessage) {\n            pm.test('Validate error message', () => {\n                pm.expect(result.scope.json().message.toLowerCase()).to.be.equal(result.errorMessage.trim().toLowerCase());\n            });\n        }\n        if (result.statusCode >= 400 && result.statusCode < 500 && result.errorCode || result.errorCode === 0) {\n            pm.test('Validate error code', () => {\n                pm.expect(result.scope.json().error_code).to.be.equal(result.errorCode);\n            });\n        }\n    }\n    static clearUnusedEnvironmentVariables() {\n        const vars = pm.environment.values.reduce((prev, curr) => [...prev, curr.key].filter(el => !el.match(/baseUrl|schema|body|utils/gi)), []);\n        for (let v of vars) pm.environment.unset(v);\n    }\n\t\n\tstatic getMonth(date) {\n        const month = date.getMonth() + 1;\n        return (month < 10 ? '0' : '') + month;\n    }\n\t\n    static getDay(date) {\n        return (date.getDate() < 10 ? '0' : '') + date.getDate();\n    }\n\t\n    static randomDate(start, end) {\n        const date = new Date(start.getTime() + Math.random() * (end.getTime() - start.getTime()));\n        return `${date.getFullYear().toString().substr(-2)}${this.getMonth(date)}${this.getDay(date)}`;\n    }\n    \n    static generateValidRFC(year = 1960) {\n        return `${this.makeString(~~(Math.random() * (5 - 3)) + 3).toUpperCase()}${this.randomDate(new Date(year, 0, 1), new Date(2001, 0, 1))}${utils.makeString(3).toUpperCase()}`;\n    }\n    \n    static randomiza(n) {\n        return Math.round(Math.random() * n);\n    }\n    static mod(dividendo, divisor) {\n        return Math.round(dividendo - (Math.floor(dividendo / divisor) * divisor));\n    }\n    static generateValidCpf() {\n        var comPontos = true; // TRUE para ativar e FALSE para desativar a pontuação.\n    \n        var n = 9;\n        var cpf = '';\n        var n1 = this.randomiza(n);\n        var n2 = this.randomiza(n);\n        var n3 = this.randomiza(n);\n        var n4 = this.randomiza(n);\n        var n5 = this.randomiza(n);\n        var n6 = this.randomiza(n);\n        var n7 = this.randomiza(n);\n        var n8 = this.randomiza(n);\n        var n9 = this.randomiza(n);\n        var d1 = n9 * 2 + n8 * 3 + n7 * 4 + n6 * 5 + n5 * 6 + n4 * 7 + n3 * 8 + n2 * 9 + n1 * 10;\n        d1 = 11 - (this.mod(d1, 11));\n        if (d1 >= 10) d1 = 0;\n        var d2 = d1 * 2 + n9 * 3 + n8 * 4 + n7 * 5 + n6 * 6 + n5 * 7 + n4 * 8 + n3 * 9 + n2 * 10 + n1 * 11;\n        d2 = 11 - (this.mod(d2, 11));\n        if (d2 >= 10) d2 = 0;\n        if (comPontos) cpf = '' + n1 + n2 + n3 + '.' + n4 + n5 + n6 + '.' + n7 + n8 + n9 + '-' + d1 + d2;\n        else cpf = '' + n1 + n2 + n3 + n4 + n5 + n6 + n7 + n8 + n9 + d1 + d2;\n    \n    \n        return cpf;\n    }\n    \n    static auth(_data) {\n        return {\n            url: `${pm.variables.get('baseUrl')}/auth`,\n            method: 'POST',\n            header: {\n                'content-type': 'application/json',\n                'Connection': 'Close'\n            },\n            body: {\n                mode: 'raw',\n                raw: _data\n            }\n        }\n    }\n    \n    static create_professional(_data, token) {\n        return {\n            url: `${pm.variables.get('baseUrl')}/professional`,\n            method: 'POST',\n            header: {\n                'content-type': 'application/json',\n                'Connection': 'Close',\n                'Authorization': `Bearer ${token}`\n            },\n            body: {\n                mode: 'raw',\n                raw: _data\n            }\n        }\n    }\n    \n    static create_user(_data, token) {\n        return {\n            url: `${pm.variables.get('baseUrl')}/user`,\n            method: 'POST',\n            header: {\n                'content-type': 'application/json',\n                'Connection': 'Close',\n                'Authorization': `Bearer ${token}`\n            },\n            body: {\n                mode: 'raw',\n                raw: _data\n            }\n        }\n    }\n    static create_emploee(_data, token) {\n        return {\n            url: `${pm.variables.get('baseUrl')}/employee`,\n            method: 'POST',\n            header: {\n                'content-type': 'application/json',\n                'Connection': 'Close',\n                'Authorization': `Bearer ${token}`\n            },\n            body: {\n                mode: 'raw',\n                raw: _data\n            }\n        }\n    }\n    static create_schedule(_data, token) {\n        return {\n            url: `${pm.variables.get('baseUrl')}/schedule`,\n            method: 'POST',\n            header: {\n                'content-type': 'application/json',\n                'Connection': 'Close',\n                'Authorization': `Bearer ${token}`\n            },\n            body: {\n                mode: 'raw',\n                raw: _data\n            }\n        }\n    }\n    static create_balance(_data, token) {\n        return {\n            url: `${pm.variables.get('baseUrl')}/balance`,\n            method: 'POST',\n            header: {\n                'content-type': 'application/json',\n                'Connection': 'Close',\n                'Authorization': `Bearer ${token}`\n            },\n            body: {\n                mode: 'raw',\n                raw: _data\n            }\n        }\n    }\n    static create_stock(_data, token) {\n        return {\n            url: `${pm.variables.get('baseUrl')}/stock`,\n            method: 'POST',\n            header: {\n                'content-type': 'application/json',\n                'Connection': 'Close',\n                'Authorization': `Bearer ${token}`\n            },\n            body: {\n                mode: 'raw',\n                raw: _data\n            }\n        }\n    }\n    static create_service(_data, token) {\n        return {\n            url: `${pm.variables.get('baseUrl')}/service`,\n            method: 'POST',\n            header: {\n                'content-type': 'application/json',\n                'Connection': 'Close',\n                'Authorization': `Bearer ${token}`\n            },\n            body: {\n                mode: 'raw',\n                raw: _data\n            }\n        }\n    }\n    static randomGender() {\n        const GenderTypeEnum = ['MASCULINO', 'FEMININO', 'NÃO INFORMADO'];\n        const random = Math.floor(Math.random() * GenderTypeEnum.length);\n        return  GenderTypeEnum[random]\n      }\n    \n      static randomNumber() {\n        return Math.floor(Math.random() * 1000)\n      }\n});",
			"enabled": true
		},
		{
			"key": "token",
			"value": "",
			"enabled": true
		}
	],
	"_postman_variable_scope": "environment",
	"_postman_exported_at": "2021-02-03T00:29:21.488Z",
	"_postman_exported_using": "Postman/7.36.3"
}