{
  "name": "jonas Jose",
  "birthdate": "1987-09-28",
  "cpf": "000-000-000-00",
  "rg:": null,
  "phone": "53 9 0000-0000",
  "gender": "masculino",
  "email": "jonas@gmail.com",
  "address": "rua jonas",
  "observation": "nao possui deficiencia",
  "password": "123456",
  "company": "Sorridev",
  "dentist": "Dona sonia"
}
